{
    "name": "888 ALIEN #354",
    "image": "https://888aliens.mypinata.cloud/ipfs/QmcwNiBvN7LyMBLxpHgFwsNLFGCgsZdpMdAmWrf41dYaNv/354.png",
    "attributes": [
        {
            "trait_type": "Background",
            "value": "Purple"
        },
        {
            "trait_type": "Body",
            "value": "Alien"
        },
        {
            "trait_type": "Clothes",
            "value": "Oni’s Slayer"
        },
        {
            "trait_type": "Hair",
            "value": "One For All"
        },
        {
            "trait_type": "Eyes",
            "value": "Mii"
        },
        {
            "trait_type": "Mouth",
            "value": "Kitsune"
        }
    ]
}